{
    "added_by_uid": null,
    "assigned_by_uid": 1658561,
    "checked": 0,
    "child_order": 8,
    "collapsed": 0,
    "content": "Timeline",
    "date_added": "2014-04-11T08:32:57Z",
    "date_completed": null,
    "day_order": -1,
    "description": "",
    "due": null,
    "has_more_notes": false,
    "id": 1885529162,
    "in_history": 0,
    "is_deleted": 0,
    "labels": [],
    "legacy_id": 6480970,
    "legacy_project_id": 122353372,
    "parent_id": null,
    "priority": 1,
    "project_id": 2001401564,
    "responsible_uid": null,
    "section_id": null,
    "sync_id": null,
    "user_id": 1658561
}