{
    "added_by_uid": null,
    "assigned_by_uid": 1658561,
    "checked": 0,
    "child_order": 4,
    "collapsed": 0,
    "content": "Empezar a dise\u00f1ar un Anvil",
    "date_added": "2014-07-24T10:41:39Z",
    "date_completed": null,
    "day_order": -1,
    "description": "",
    "due": null,
    "has_more_notes": false,
    "id": 1899833007,
    "in_history": 0,
    "is_deleted": 0,
    "labels": [],
    "legacy_id": 20784815,
    "legacy_project_id": 122485029,
    "parent_id": null,
    "priority": 1,
    "project_id": 2001533221,
    "responsible_uid": null,
    "section_id": null,
    "sync_id": null,
    "user_id": 1658561
}