{
    "added_by_uid": null,
    "assigned_by_uid": 1658561,
    "checked": 0,
    "child_order": 5,
    "collapsed": 0,
    "content": "Mandar el CV de Mercedes a Pablo",
    "date_added": "2014-11-15T09:57:56Z",
    "date_completed": null,
    "day_order": -1,
    "description": "",
    "due": null,
    "has_more_notes": false,
    "id": 1922001088,
    "in_history": 0,
    "is_deleted": 0,
    "labels": [],
    "legacy_id": 42952896,
    "legacy_project_id": 122485029,
    "parent_id": null,
    "priority": 3,
    "project_id": 2001533221,
    "responsible_uid": null,
    "section_id": null,
    "sync_id": null,
    "user_id": 1658561
}