{
    "added_by_uid": null,
    "assigned_by_uid": 1658561,
    "checked": 0,
    "child_order": 31,
    "collapsed": 0,
    "content": "Ver de arreglar la E-Mail Disociation de Neuroglia#Neuroglia",
    "date_added": "2016-07-27T20:03:28Z",
    "date_completed": null,
    "day_order": -1,
    "description": "",
    "due": null,
    "has_more_notes": false,
    "id": 1981584388,
    "in_history": 0,
    "is_deleted": 0,
    "labels": [],
    "legacy_id": 102536196,
    "legacy_project_id": 121918548,
    "parent_id": null,
    "priority": 1,
    "project_id": 2000966740,
    "responsible_uid": null,
    "section_id": null,
    "sync_id": null,
    "user_id": 1658561
}