{
    "added_by_uid": null,
    "assigned_by_uid": null,
    "checked": 0,
    "child_order": 37,
    "collapsed": 0,
    "content": "backup, delete y recover Glia",
    "date_added": "2017-03-27T23:51:05Z",
    "date_completed": null,
    "day_order": -1,
    "description": "",
    "due": null,
    "has_more_notes": false,
    "id": 2015274768,
    "in_history": 0,
    "is_deleted": 0,
    "labels": [],
    "legacy_id": 136226576,
    "legacy_project_id": 121918548,
    "parent_id": null,
    "priority": 1,
    "project_id": 2000966740,
    "responsible_uid": null,
    "section_id": null,
    "sync_id": null,
    "user_id": 1658561
}