{
    "added_by_uid": null,
    "assigned_by_uid": null,
    "checked": 0,
    "child_order": 8,
    "collapsed": 0,
    "content": "hacer listado de dominios activos",
    "date_added": "2018-07-12T13:39:49Z",
    "date_completed": null,
    "day_order": -1,
    "description": "",
    "due": null,
    "has_more_notes": false,
    "id": 2727863340,
    "in_history": 0,
    "is_deleted": 0,
    "labels": [],
    "legacy_project_id": 121918548,
    "parent_id": null,
    "priority": 1,
    "project_id": 2000966740,
    "responsible_uid": null,
    "section_id": null,
    "sync_id": null,
    "user_id": 1658561
}