{
    "added_by_uid": null,
    "assigned_by_uid": null,
    "checked": 0,
    "child_order": 132,
    "collapsed": 0,
    "content": "Mail x SmartCard para Firma digital",
    "date_added": "2018-08-29T16:03:40Z",
    "date_completed": null,
    "day_order": -1,
    "description": "",
    "due": null,
    "has_more_notes": false,
    "id": 2791018644,
    "in_history": 0,
    "is_deleted": 0,
    "labels": [],
    "legacy_project_id": 122485029,
    "parent_id": null,
    "priority": 1,
    "project_id": 2001533221,
    "responsible_uid": null,
    "section_id": null,
    "sync_id": null,
    "user_id": 1658561
}