{
    "added_by_uid": null,
    "assigned_by_uid": null,
    "checked": 0,
    "child_order": 126,
    "collapsed": 0,
    "content": "https:\/\/www.ebayinc.com\/stories\/news\/ebay-builds-own-servers-intends-to-open-source\/ (eBay Builds Own Servers, Intends to Open Source)",
    "date_added": "2018-09-05T21:48:11Z",
    "date_completed": null,
    "day_order": -1,
    "description": "",
    "due": null,
    "has_more_notes": false,
    "id": 2801547242,
    "in_history": 0,
    "is_deleted": 0,
    "labels": [],
    "legacy_project_id": 122485029,
    "parent_id": null,
    "priority": 1,
    "project_id": 2001533221,
    "responsible_uid": null,
    "section_id": null,
    "sync_id": null,
    "user_id": 1658561
}