{
    "added_by_uid": null,
    "assigned_by_uid": 1658561,
    "checked": 0,
    "child_order": 155,
    "collapsed": 0,
    "content": "[Decrypting secrets in your CI\/CD pipeline \u2013 Jon Gille \u2013 Medium](https:\/\/medium.com\/@jon_gille\/decrypting-secrets-in-your-ci-cd-pipeline-c57da11e1794)",
    "date_added": "2019-01-26T13:50:43Z",
    "date_completed": null,
    "day_order": -1,
    "description": "",
    "due": null,
    "has_more_notes": false,
    "id": 3020583647,
    "in_history": 0,
    "is_deleted": 0,
    "labels": [],
    "parent_id": null,
    "priority": 1,
    "project_id": 2212595128,
    "responsible_uid": null,
    "section_id": null,
    "sync_id": null,
    "user_id": 1658561
}