{
    "added_by_uid": null,
    "assigned_by_uid": 1658561,
    "checked": 0,
    "child_order": 192,
    "collapsed": 0,
    "content": "[Embedding WebAssembly in your Rust application \u2013 Wasmer \u2013 Medium](https:\/\/medium.com\/wasmer\/executing-webassembly-in-your-rust-application-d5cd32e8ce46)",
    "date_added": "2019-01-26T13:11:29Z",
    "date_completed": null,
    "day_order": -1,
    "description": "",
    "due": null,
    "has_more_notes": false,
    "id": 3020550225,
    "in_history": 0,
    "is_deleted": 0,
    "labels": [],
    "parent_id": null,
    "priority": 1,
    "project_id": 2212595128,
    "responsible_uid": null,
    "section_id": null,
    "sync_id": null,
    "user_id": 1658561
}