{
    "added_by_uid": null,
    "assigned_by_uid": 1658561,
    "checked": 0,
    "child_order": 202,
    "collapsed": 0,
    "content": "[Auditing containers with osquery \u2013 ITNEXT](https:\/\/itnext.io\/auditing-containers-with-osquery-389636f8c420)",
    "date_added": "2019-01-30T10:47:00Z",
    "date_completed": null,
    "day_order": -1,
    "description": "",
    "due": null,
    "has_more_notes": false,
    "id": 3027282895,
    "in_history": 0,
    "is_deleted": 0,
    "labels": [],
    "parent_id": null,
    "priority": 1,
    "project_id": 2212595128,
    "responsible_uid": null,
    "section_id": null,
    "sync_id": null,
    "user_id": 1658561
}