{
    "added_by_uid": null,
    "assigned_by_uid": 1658561,
    "checked": 0,
    "child_order": 213,
    "collapsed": 0,
    "content": "[The Crisis of Modern Science - The American Interest](https:\/\/www.the-american-interest.com\/2019\/02\/11\/the-crisis-of-modern-science\/)",
    "date_added": "2019-02-12T11:57:48Z",
    "date_completed": null,
    "day_order": -1,
    "description": "",
    "due": null,
    "has_more_notes": false,
    "id": 3049024887,
    "in_history": 0,
    "is_deleted": 0,
    "labels": [],
    "parent_id": null,
    "priority": 1,
    "project_id": 2212595128,
    "responsible_uid": null,
    "section_id": null,
    "sync_id": null,
    "user_id": 1658561
}