{
    "added_by_uid": null,
    "assigned_by_uid": 1658561,
    "checked": 0,
    "child_order": 165,
    "collapsed": 0,
    "content": "[Perish not publish? New study quantifies the lack of female authors in scientific journals](https:\/\/theconversation.com\/amp\/perish-not-publish-new-study-quantifies-the-lack-of-female-authors-in-scientific-journals-92999)",
    "date_added": "2019-02-13T08:00:05Z",
    "date_completed": null,
    "day_order": -1,
    "description": "",
    "due": null,
    "has_more_notes": false,
    "id": 3050644189,
    "in_history": 0,
    "is_deleted": 0,
    "labels": [],
    "parent_id": null,
    "priority": 1,
    "project_id": 2212595128,
    "responsible_uid": null,
    "section_id": null,
    "sync_id": null,
    "user_id": 1658561
}