{
    "added_by_uid": null,
    "assigned_by_uid": 1658561,
    "checked": 0,
    "child_order": 240,
    "collapsed": 0,
    "content": "[Swim Open Sources Its Machine Learning Platform for Edge Computing](https:\/\/www.datacenterknowledge.com\/open-source\/swim-open-sources-its-machine-learning-platform-edge-computing)",
    "date_added": "2019-02-23T13:18:39Z",
    "date_completed": null,
    "day_order": -1,
    "description": "",
    "due": null,
    "has_more_notes": false,
    "id": 3067389088,
    "in_history": 0,
    "is_deleted": 0,
    "labels": [],
    "parent_id": null,
    "priority": 1,
    "project_id": 2212595128,
    "responsible_uid": null,
    "section_id": null,
    "sync_id": null,
    "user_id": 1658561
}