{
    "added_by_uid": null,
    "assigned_by_uid": 1658561,
    "checked": 0,
    "child_order": 251,
    "collapsed": 0,
    "content": "[Salesforce, Dell and 8 other top tech companies hiring for remote jobs](https:\/\/www.cnbc.com\/2019\/02\/22\/salesforce-dell-and-8-other-top-tech-companies-hiring-for-remote-jobs.html)",
    "date_added": "2019-02-25T02:13:07Z",
    "date_completed": null,
    "day_order": -1,
    "description": "",
    "due": null,
    "has_more_notes": false,
    "id": 3069174264,
    "in_history": 0,
    "is_deleted": 0,
    "labels": [],
    "parent_id": null,
    "priority": 1,
    "project_id": 2212595128,
    "responsible_uid": null,
    "section_id": null,
    "sync_id": null,
    "user_id": 1658561
}