{
    "added_by_uid": null,
    "assigned_by_uid": 1658561,
    "checked": 0,
    "child_order": 243,
    "collapsed": 0,
    "content": "[A Deep Dive Into the World's Oceans, Lakes, and Drill Holes](https:\/\/www.visualcapitalist.com\/dive-oceans-lakes-drill-holes\/)",
    "date_added": "2019-02-25T01:55:04Z",
    "date_completed": null,
    "day_order": -1,
    "description": "",
    "due": null,
    "has_more_notes": false,
    "id": 3069158555,
    "in_history": 0,
    "is_deleted": 0,
    "labels": [],
    "parent_id": null,
    "priority": 1,
    "project_id": 2212595128,
    "responsible_uid": null,
    "section_id": null,
    "sync_id": null,
    "user_id": 1658561
}