{
    "added_by_uid": null,
    "assigned_by_uid": 1658561,
    "checked": 0,
    "child_order": 246,
    "collapsed": 0,
    "content": "[How Agile Teams Grow Toxic! Ep. 2 Hiring Talent - DEV Community \ud83d\udc69\u200d\ud83d\udcbb\ud83d\udc68\u200d\ud83d\udcbb](https:\/\/dev.to\/jaymeedwards\/how-agile-teams-grow-toxic-ep-2-hiring-talent-4a9m)",
    "date_added": "2019-02-25T02:03:04Z",
    "date_completed": null,
    "day_order": -1,
    "description": "",
    "due": null,
    "has_more_notes": false,
    "id": 3069165357,
    "in_history": 0,
    "is_deleted": 0,
    "labels": [],
    "parent_id": null,
    "priority": 1,
    "project_id": 2212595128,
    "responsible_uid": null,
    "section_id": null,
    "sync_id": null,
    "user_id": 1658561
}