{
    "added_by_uid": null,
    "assigned_by_uid": 1658561,
    "checked": 0,
    "child_order": 259,
    "collapsed": 0,
    "content": "[How to Lead Teams to DevOps Maturity - The New Stack](https:\/\/thenewstack.io\/how-to-lead-teams-to-devops-maturity\/)",
    "date_added": "2019-02-27T13:56:33Z",
    "date_completed": null,
    "day_order": -1,
    "description": "",
    "due": null,
    "has_more_notes": false,
    "id": 3074095628,
    "in_history": 0,
    "is_deleted": 0,
    "labels": [],
    "parent_id": null,
    "priority": 1,
    "project_id": 2212595128,
    "responsible_uid": null,
    "section_id": null,
    "sync_id": null,
    "user_id": 1658561
}