{
    "added_by_uid": null,
    "assigned_by_uid": 1658561,
    "checked": 0,
    "child_order": 276,
    "collapsed": 0,
    "content": "[Hey, 2020 Candidates: This Is Why You Should Stop Advertising | Immodest proposal | OZY](https:\/\/www.ozy.com\/immodest-proposal\/hey-2020-candidates-this-is-why-you-should-stop-advertising\/93166)",
    "date_added": "2019-03-29T17:34:27Z",
    "date_completed": null,
    "day_order": -1,
    "description": "",
    "due": null,
    "has_more_notes": false,
    "id": 3125254006,
    "in_history": 0,
    "is_deleted": 0,
    "labels": [],
    "parent_id": null,
    "priority": 1,
    "project_id": 2212595128,
    "responsible_uid": null,
    "section_id": null,
    "sync_id": null,
    "user_id": 1658561
}