{
    "added_by_uid": null,
    "assigned_by_uid": 1658561,
    "checked": 0,
    "child_order": 277,
    "collapsed": 0,
    "content": "project getting started https:\/\/aws.amazon.com\/getting-started\/projects\/build-serverless-web-app-lambda-apigateway-s3-dynamodb-cognito\/",
    "date_added": "2019-04-02T22:00:54Z",
    "date_completed": null,
    "day_order": -1,
    "description": "",
    "due": null,
    "has_more_notes": false,
    "id": 3131915726,
    "in_history": 0,
    "is_deleted": 0,
    "labels": [],
    "parent_id": null,
    "priority": 1,
    "project_id": 2212595128,
    "responsible_uid": null,
    "section_id": null,
    "sync_id": null,
    "user_id": 1658561
}