{
    "added_by_uid": null,
    "assigned_by_uid": 1658561,
    "checked": 0,
    "child_order": 174,
    "collapsed": 0,
    "content": "Seguir con Yugabyte",
    "date_added": "2019-04-11T03:05:44Z",
    "date_completed": null,
    "day_order": -1,
    "description": "",
    "due": null,
    "has_more_notes": false,
    "id": 3145861884,
    "in_history": 0,
    "is_deleted": 0,
    "labels": [
        1879697016
    ],
    "legacy_project_id": 122485029,
    "parent_id": null,
    "priority": 1,
    "project_id": 2001533221,
    "responsible_uid": null,
    "section_id": null,
    "sync_id": null,
    "user_id": 1658561
}