{
    "added_by_uid": null,
    "assigned_by_uid": 1658561,
    "checked": 0,
    "child_order": 150,
    "collapsed": 0,
    "content": "[TypeORM MongoDB Review \u2013 Articode \u2013 Medium](https:\/\/medium.com\/articode\/typeorm-mongodb-review-8855903228b1)",
    "date_added": "2019-04-12T04:13:54Z",
    "date_completed": null,
    "day_order": -1,
    "description": "",
    "due": null,
    "has_more_notes": false,
    "id": 3147749313,
    "in_history": 0,
    "is_deleted": 0,
    "labels": [],
    "parent_id": null,
    "priority": 1,
    "project_id": 2212595128,
    "responsible_uid": null,
    "section_id": null,
    "sync_id": null,
    "user_id": 1658561
}