{
    "added_by_uid": null,
    "assigned_by_uid": 1658561,
    "checked": 0,
    "child_order": 100,
    "collapsed": 0,
    "content": "[7 AWS CloudTrail Best Practices with Console and CLI Examples](https:\/\/www.thegeekstuff.com\/2019\/04\/aws-cloudtrail-best-practice\/)",
    "date_added": "2019-04-17T14:02:33Z",
    "date_completed": null,
    "day_order": -1,
    "description": "",
    "due": null,
    "has_more_notes": false,
    "id": 3156225061,
    "in_history": 0,
    "is_deleted": 0,
    "labels": [],
    "parent_id": null,
    "priority": 1,
    "project_id": 2212595128,
    "responsible_uid": null,
    "section_id": null,
    "sync_id": null,
    "user_id": 1658561
}