{
    "added_by_uid": null,
    "assigned_by_uid": 1658561,
    "checked": 0,
    "child_order": 115,
    "collapsed": 0,
    "content": "[Non-technical skills needed as a data scientist & how can he become effective Communicator](https:\/\/medium.com\/greyatom\/non-technical-skills-needed-as-a-data-scientist-how-can-he-become-effective-communicator-76241c1bc088)",
    "date_added": "2019-04-19T03:48:23Z",
    "date_completed": null,
    "day_order": -1,
    "description": "",
    "due": null,
    "has_more_notes": false,
    "id": 3158863302,
    "in_history": 0,
    "is_deleted": 0,
    "labels": [],
    "parent_id": null,
    "priority": 1,
    "project_id": 2212595128,
    "responsible_uid": null,
    "section_id": null,
    "sync_id": null,
    "user_id": 1658561
}