{
    "added_by_uid": null,
    "assigned_by_uid": 1658561,
    "checked": 0,
    "child_order": 120,
    "collapsed": 0,
    "content": "[To Create An Evolvable API, Think About The Protocol](https:\/\/medium.com\/@fagnerbrack\/to-create-an-evolvable-api-think-about-the-protocol-9a0e976388f5)",
    "date_added": "2019-04-19T04:00:21Z",
    "date_completed": null,
    "day_order": -1,
    "description": "",
    "due": null,
    "has_more_notes": false,
    "id": 3158869655,
    "in_history": 0,
    "is_deleted": 0,
    "labels": [],
    "parent_id": null,
    "priority": 1,
    "project_id": 2212595128,
    "responsible_uid": null,
    "section_id": null,
    "sync_id": null,
    "user_id": 1658561
}