{
    "added_by_uid": null,
    "assigned_by_uid": 1658561,
    "checked": 0,
    "child_order": 123,
    "collapsed": 0,
    "content": "[A Day In The Life Of: A HackerEarth Data Scientist Who Wants To Build A Strong Data Science Team](https:\/\/www.analyticsindiamag.com\/a-day-in-the-life-of-a-hackerearth-data-scientist-who-wants-to-build-a-strong-data-science-team\/)",
    "date_added": "2019-04-20T22:30:53Z",
    "date_completed": null,
    "day_order": -1,
    "description": "",
    "due": null,
    "has_more_notes": false,
    "id": 3160847490,
    "in_history": 0,
    "is_deleted": 0,
    "labels": [],
    "parent_id": null,
    "priority": 1,
    "project_id": 2212595128,
    "responsible_uid": null,
    "section_id": null,
    "sync_id": null,
    "user_id": 1658561
}