{
    "added_by_uid": null,
    "assigned_by_uid": 1658561,
    "checked": 0,
    "child_order": 143,
    "collapsed": 0,
    "content": "[Why Choose Data Science for Your Career \u2013 Towards Data Science](https:\/\/towardsdatascience.com\/why-choose-data-science-for-your-career-ca38db0c28d4)",
    "date_added": "2019-04-21T16:25:36Z",
    "date_completed": null,
    "day_order": -1,
    "description": "",
    "due": null,
    "has_more_notes": false,
    "id": 3161406557,
    "in_history": 0,
    "is_deleted": 0,
    "labels": [],
    "parent_id": null,
    "priority": 1,
    "project_id": 2212595128,
    "responsible_uid": null,
    "section_id": null,
    "sync_id": null,
    "user_id": 1658561
}