{
    "added_by_uid": null,
    "assigned_by_uid": 1658561,
    "checked": 0,
    "child_order": 131,
    "collapsed": 0,
    "content": "[Recycling after China's plastic ban: American cities face a recycling crisis - CBS News](https:\/\/www.cbsnews.com\/news\/recycling-after-chinas-plastic-ban-american-cities-face-recycling-crisis\/)",
    "date_added": "2019-04-23T10:44:41Z",
    "date_completed": null,
    "day_order": -1,
    "description": "",
    "due": null,
    "has_more_notes": false,
    "id": 3164200467,
    "in_history": 0,
    "is_deleted": 0,
    "labels": [],
    "parent_id": null,
    "priority": 1,
    "project_id": 2212595128,
    "responsible_uid": null,
    "section_id": null,
    "sync_id": null,
    "user_id": 1658561
}