{
    "added_by_uid": null,
    "assigned_by_uid": 1658561,
    "checked": 0,
    "child_order": 81,
    "collapsed": 0,
    "content": "[Love Squats? Here's How To Actually Do Them The Right Way](https:\/\/www.mindbodygreen.com\/articles\/how-to-do-a-squat-properly-without-getting-injured)",
    "date_added": "2019-05-05T11:51:00Z",
    "date_completed": null,
    "day_order": -1,
    "description": "",
    "due": null,
    "has_more_notes": false,
    "id": 3182692346,
    "in_history": 0,
    "is_deleted": 0,
    "labels": [],
    "parent_id": null,
    "priority": 1,
    "project_id": 2212595128,
    "responsible_uid": null,
    "section_id": null,
    "sync_id": null,
    "user_id": 1658561
}