{
    "added_by_uid": null,
    "assigned_by_uid": 1658561,
    "checked": 0,
    "child_order": 82,
    "collapsed": 0,
    "content": "[FriendlyElec NanoPi NEO 4: A compact and hexa-core powered Raspberry Pi alternative that costs just US$50 - NotebookCheck.net News](https:\/\/www.notebookcheck.net\/FriendlyElec-NanoPi-NEO-4-A-compact-and-hexa-core-powered-Raspberry-Pi-alternative-that-costs-just-US-50.420092.0.html)",
    "date_added": "2019-05-05T11:51:01Z",
    "date_completed": null,
    "day_order": -1,
    "description": "",
    "due": null,
    "has_more_notes": false,
    "id": 3182692362,
    "in_history": 0,
    "is_deleted": 0,
    "labels": [],
    "parent_id": null,
    "priority": 1,
    "project_id": 2212595128,
    "responsible_uid": null,
    "section_id": null,
    "sync_id": null,
    "user_id": 1658561
}