{
    "added_by_uid": null,
    "assigned_by_uid": 1658561,
    "checked": 0,
    "child_order": 86,
    "collapsed": 0,
    "content": "[WordPress REST API: What It Is and How to Get Started Using It](https:\/\/www.codeinwp.com\/blog\/wordpress-rest-api\/?amp)",
    "date_added": "2019-05-12T15:09:46Z",
    "date_completed": null,
    "day_order": -1,
    "description": "",
    "due": null,
    "has_more_notes": false,
    "id": 3194214330,
    "in_history": 0,
    "is_deleted": 0,
    "labels": [],
    "parent_id": null,
    "priority": 1,
    "project_id": 2212595128,
    "responsible_uid": null,
    "section_id": null,
    "sync_id": null,
    "user_id": 1658561
}