{
    "added_by_uid": null,
    "assigned_by_uid": 1658561,
    "checked": 0,
    "child_order": 70,
    "collapsed": 0,
    "content": "[Using Testinfra with Ansible to verify server state | Opensource.com](https:\/\/opensource.com\/article\/19\/5\/using-testinfra-ansible-verify-server-state)",
    "date_added": "2019-05-18T01:23:11Z",
    "date_completed": null,
    "day_order": -1,
    "description": "",
    "due": null,
    "has_more_notes": false,
    "id": 3204164654,
    "in_history": 0,
    "is_deleted": 0,
    "labels": [],
    "parent_id": null,
    "priority": 1,
    "project_id": 2212595128,
    "responsible_uid": null,
    "section_id": null,
    "sync_id": null,
    "user_id": 1658561
}