{
    "added_by_uid": null,
    "assigned_by_uid": 1658561,
    "checked": 0,
    "child_order": 67,
    "collapsed": 0,
    "content": "[10 Ways Psychology Can Help You Live a Better Life](https:\/\/www.verywellmind.com\/ways-psychology-can-help-live-a-better-life-2795615)",
    "date_added": "2019-05-18T01:20:12Z",
    "date_completed": null,
    "day_order": -1,
    "description": "",
    "due": null,
    "has_more_notes": false,
    "id": 3204163216,
    "in_history": 0,
    "is_deleted": 0,
    "labels": [],
    "parent_id": null,
    "priority": 1,
    "project_id": 2212595128,
    "responsible_uid": null,
    "section_id": null,
    "sync_id": null,
    "user_id": 1658561
}