{
    "added_by_uid": null,
    "assigned_by_uid": 1658561,
    "checked": 0,
    "child_order": 69,
    "collapsed": 0,
    "content": "[Using Rust to Scale Elixir for 11 Million Concurrent Users](https:\/\/blog.discordapp.com\/using-rust-to-scale-elixir-for-11-million-concurrent-users-c6f19fc029d3)",
    "date_added": "2019-05-18T01:20:12Z",
    "date_completed": null,
    "day_order": -1,
    "description": "",
    "due": null,
    "has_more_notes": false,
    "id": 3204163224,
    "in_history": 0,
    "is_deleted": 0,
    "labels": [],
    "parent_id": null,
    "priority": 1,
    "project_id": 2212595128,
    "responsible_uid": null,
    "section_id": null,
    "sync_id": null,
    "user_id": 1658561
}