{
    "added_by_uid": null,
    "assigned_by_uid": 1658561,
    "checked": 0,
    "child_order": 56,
    "collapsed": 0,
    "content": "[How to Use Node.js for Your Website and Application - DZone Web Dev](https:\/\/dzone.com\/articles\/how-to-use-nodejs-for-your-website-and-application)",
    "date_added": "2019-05-18T01:15:55Z",
    "date_completed": null,
    "day_order": -1,
    "description": "",
    "due": null,
    "has_more_notes": false,
    "id": 3204161085,
    "in_history": 0,
    "is_deleted": 0,
    "labels": [],
    "parent_id": null,
    "priority": 1,
    "project_id": 2212595128,
    "responsible_uid": null,
    "section_id": null,
    "sync_id": null,
    "user_id": 1658561
}