{
    "added_by_uid": null,
    "assigned_by_uid": 1658561,
    "checked": 0,
    "child_order": 90,
    "collapsed": 0,
    "content": "[What chatbots can teach us about being human at work | Dropbox Blog](https:\/\/blog.dropbox.com\/topics\/work-culture\/what-chatbots-can-teach-us-about-being-human-at-work?utm_source=twitter&utm_medium=social&utm_campaign=organic)",
    "date_added": "2019-05-19T16:05:10Z",
    "date_completed": null,
    "day_order": -1,
    "description": "",
    "due": null,
    "has_more_notes": false,
    "id": 3205676088,
    "in_history": 0,
    "is_deleted": 0,
    "labels": [],
    "parent_id": null,
    "priority": 1,
    "project_id": 2212595128,
    "responsible_uid": null,
    "section_id": null,
    "sync_id": null,
    "user_id": 1658561
}