{
    "added_by_uid": null,
    "assigned_by_uid": 1658561,
    "checked": 0,
    "child_order": 287,
    "collapsed": 0,
    "content": "[I co-founded a company! Meet Problem Forward Data Science \u00b7 Simply Statistics](https:\/\/simplystatistics.org\/2019\/05\/20\/i-co-founded-a-company-meet-problem-forward-data-science\/)",
    "date_added": "2019-05-21T11:16:16Z",
    "date_completed": null,
    "day_order": -1,
    "description": "",
    "due": null,
    "has_more_notes": false,
    "id": 3209025557,
    "in_history": 0,
    "is_deleted": 0,
    "labels": [],
    "parent_id": null,
    "priority": 1,
    "project_id": 2212595128,
    "responsible_uid": null,
    "section_id": null,
    "sync_id": null,
    "user_id": 1658561
}