{
    "added_by_uid": null,
    "assigned_by_uid": 1658561,
    "checked": 0,
    "child_order": 308,
    "collapsed": 0,
    "content": "[Adoption of free and open-source software by public institutions - Wikipedia](https:\/\/en.m.wikipedia.org\/wiki\/Adoption_of_free_and_open-source_software_by_public_institutions)",
    "date_added": "2019-06-01T00:03:27Z",
    "date_completed": null,
    "day_order": -1,
    "description": "",
    "due": null,
    "has_more_notes": false,
    "id": 3226311083,
    "in_history": 0,
    "is_deleted": 0,
    "labels": [],
    "parent_id": null,
    "priority": 1,
    "project_id": 2212595128,
    "responsible_uid": null,
    "section_id": null,
    "sync_id": null,
    "user_id": 1658561
}