{
    "added_by_uid": null,
    "assigned_by_uid": 1658561,
    "checked": 0,
    "child_order": 188,
    "collapsed": 0,
    "content": "[Making a Command Line HTML Rendering Script for \u201cThe Art of the Command Line\u201d (in R) \u2013 rud.is](https:\/\/rud.is\/b\/2019\/05\/31\/making-a-command-line-html-rendering-script-for-the-art-of-the-command-line-in-r\/)",
    "date_added": "2019-06-05T10:07:46Z",
    "date_completed": null,
    "day_order": -1,
    "description": "",
    "due": null,
    "has_more_notes": false,
    "id": 3233065847,
    "in_history": 0,
    "is_deleted": 0,
    "labels": [],
    "legacy_project_id": 122485029,
    "parent_id": null,
    "priority": 1,
    "project_id": 2001533221,
    "responsible_uid": null,
    "section_id": null,
    "sync_id": null,
    "user_id": 1658561
}