{
    "added_by_uid": null,
    "assigned_by_uid": 1658561,
    "checked": 0,
    "child_order": 309,
    "collapsed": 0,
    "content": "[Top 12 Things That Destroy Developer Productivity | Anaxi](https:\/\/anaxi.com\/blog\/2018\/10\/15\/top-12-things-that-destroy-developer-productivity\/)",
    "date_added": "2019-06-11T04:26:53Z",
    "date_completed": null,
    "day_order": -1,
    "description": "",
    "due": null,
    "has_more_notes": false,
    "id": 3241805563,
    "in_history": 0,
    "is_deleted": 0,
    "labels": [],
    "parent_id": null,
    "priority": 1,
    "project_id": 2212595128,
    "responsible_uid": null,
    "section_id": null,
    "sync_id": null,
    "user_id": 1658561
}