{
    "added_by_uid": null,
    "assigned_by_uid": 1658561,
    "checked": 0,
    "child_order": 303,
    "collapsed": 0,
    "content": "[There's a Relational Database in Your Unix CLI](https:\/\/spin.atomicobject.com\/2019\/06\/16\/unix-cli-relational-database\/)",
    "date_added": "2019-06-17T15:26:38Z",
    "date_completed": null,
    "day_order": -1,
    "description": "",
    "due": null,
    "has_more_notes": false,
    "id": 3251967917,
    "in_history": 0,
    "is_deleted": 0,
    "labels": [],
    "parent_id": null,
    "priority": 1,
    "project_id": 2212595128,
    "responsible_uid": null,
    "section_id": null,
    "sync_id": null,
    "user_id": 1658561
}