{
    "added_by_uid": null,
    "assigned_by_uid": 1658561,
    "checked": 0,
    "child_order": 15,
    "collapsed": 0,
    "content": "[Open Source: the secret sauce to business success | TechRadar](https:\/\/www.techradar.com\/news\/open-source-the-secret-sauce-to-business-success)",
    "date_added": "2019-06-25T14:31:01Z",
    "date_completed": null,
    "day_order": -1,
    "description": "",
    "due": null,
    "has_more_notes": false,
    "id": 3264776806,
    "in_history": 0,
    "is_deleted": 0,
    "labels": [],
    "parent_id": null,
    "priority": 1,
    "project_id": 2212595128,
    "responsible_uid": null,
    "section_id": null,
    "sync_id": null,
    "user_id": 1658561
}