{
    "added_by_uid": null,
    "assigned_by_uid": 1658561,
    "checked": 0,
    "child_order": 71,
    "collapsed": 0,
    "content": "[Watch \"The most desired people in the job market? \u201cGlue people.\u201c | Neil Irwin\" on YouTube](https:\/\/youtu.be\/mJiROQx-M3c)",
    "date_added": "2019-07-01T00:28:31Z",
    "date_completed": null,
    "day_order": -1,
    "description": "",
    "due": null,
    "has_more_notes": false,
    "id": 3272813308,
    "in_history": 0,
    "is_deleted": 0,
    "labels": [],
    "legacy_project_id": 121918548,
    "parent_id": null,
    "priority": 1,
    "project_id": 2000966740,
    "responsible_uid": null,
    "section_id": null,
    "sync_id": null,
    "user_id": 1658561
}