{
    "added_by_uid": null,
    "assigned_by_uid": 1658561,
    "checked": 0,
    "child_order": 23,
    "collapsed": 0,
    "content": "[How the Ivy Lee Method Changed My Life and Maximized My Daily Productivity | Verily](https:\/\/verilymag.com\/2019\/07\/ivy-lee-method-to-do-list-hack)",
    "date_added": "2019-07-02T04:31:49Z",
    "date_completed": null,
    "day_order": -1,
    "description": "",
    "due": null,
    "has_more_notes": false,
    "id": 3275109080,
    "in_history": 0,
    "is_deleted": 0,
    "labels": [],
    "legacy_project_id": 122485029,
    "parent_id": null,
    "priority": 1,
    "project_id": 2001533221,
    "responsible_uid": null,
    "section_id": null,
    "sync_id": null,
    "user_id": 1658561
}