{
    "added_by_uid": null,
    "assigned_by_uid": 1658561,
    "checked": 0,
    "child_order": 23,
    "collapsed": 0,
    "content": "[From BASIC to Ruby: Life lessons from first programming languages on Command Line Heroes | Opensource.com](https:\/\/opensource.com\/19\/7\/command-line-heroes-ruby-basic)",
    "date_added": "2019-07-09T14:48:53Z",
    "date_completed": null,
    "day_order": -1,
    "description": "",
    "due": null,
    "has_more_notes": false,
    "id": 3286730716,
    "in_history": 0,
    "is_deleted": 0,
    "labels": [],
    "parent_id": null,
    "priority": 1,
    "project_id": 2212595128,
    "responsible_uid": null,
    "section_id": null,
    "sync_id": null,
    "user_id": 1658561
}