{
    "added_by_uid": null,
    "assigned_by_uid": 1658561,
    "checked": 0,
    "child_order": 196,
    "collapsed": 0,
    "content": "buscar noticias de Vorterix 10\/Julio Carceles noruegas, robot con palos, auto-piloto para aviones",
    "date_added": "2019-07-10T11:41:08Z",
    "date_completed": null,
    "day_order": -1,
    "description": "",
    "due": null,
    "has_more_notes": false,
    "id": 3288247685,
    "in_history": 0,
    "is_deleted": 0,
    "labels": [],
    "legacy_project_id": 122485029,
    "parent_id": null,
    "priority": 1,
    "project_id": 2001533221,
    "responsible_uid": null,
    "section_id": null,
    "sync_id": null,
    "user_id": 1658561
}