{
    "added_by_uid": null,
    "assigned_by_uid": 1658561,
    "checked": 0,
    "child_order": 22,
    "collapsed": 0,
    "content": "[silicon\/README.md at master \u00b7 Aloxaf\/silicon \u00b7 GitHub](https:\/\/github.com\/Aloxaf\/silicon\/blob\/master\/README.md)",
    "date_added": "2019-07-15T04:51:18Z",
    "date_completed": null,
    "day_order": 11,
    "description": "",
    "due": null,
    "has_more_notes": false,
    "id": 3294801329,
    "in_history": 0,
    "is_deleted": 0,
    "labels": [],
    "legacy_project_id": 122088194,
    "parent_id": null,
    "priority": 1,
    "project_id": 2001136386,
    "responsible_uid": null,
    "section_id": null,
    "sync_id": null,
    "user_id": 1658561
}