{
    "added_by_uid": null,
    "assigned_by_uid": 1658561,
    "checked": 0,
    "child_order": 63,
    "collapsed": 0,
    "content": "[Fondos de mayor tama\u00f1o e inversionistas institucionales: los desaf\u00edos del venture capital](https:\/\/www.latercera.com\/pulso-trader\/noticia\/crear-fondos-mayor-tamano-atraer-inversionistas-institucionales-los-desafios-del-venture-capital-chile\/830717\/)",
    "date_added": "2019-09-29T03:28:16Z",
    "date_completed": null,
    "day_order": -1,
    "description": "",
    "due": null,
    "has_more_notes": false,
    "id": 3421653320,
    "in_history": 0,
    "is_deleted": 0,
    "labels": [],
    "parent_id": null,
    "priority": 1,
    "project_id": 2179356970,
    "responsible_uid": null,
    "section_id": null,
    "sync_id": null,
    "user_id": 1658561
}