{
    "added_by_uid": null,
    "assigned_by_uid": 1658561,
    "checked": 0,
    "child_order": 3,
    "collapsed": 0,
    "content": "revisitar http:\/\/presenting.globant.com\/week1\/#15",
    "date_added": "2019-10-22T16:44:15Z",
    "date_completed": null,
    "day_order": -1,
    "description": "",
    "due": null,
    "has_more_notes": false,
    "id": 3464562758,
    "in_history": 0,
    "is_deleted": 0,
    "labels": [],
    "parent_id": null,
    "priority": 1,
    "project_id": 2218583198,
    "responsible_uid": null,
    "section_id": 1182369,
    "sync_id": null,
    "user_id": 1658561
}