{
    "added_by_uid": 1658561,
    "assigned_by_uid": null,
    "checked": 0,
    "child_order": 29,
    "collapsed": 0,
    "content": "[Ejecuta macOS Catalina en Linux de forma f\u00e1cil](https:\/\/www.linuxadictos.com\/ejecuta-macos-catalina-en-linux-de-forma-facil.html)",
    "date_added": "2019-11-08T10:07:09Z",
    "date_completed": null,
    "day_order": 38,
    "description": "",
    "due": null,
    "has_more_notes": false,
    "id": 3497088964,
    "in_history": 0,
    "is_deleted": 0,
    "labels": [],
    "legacy_project_id": 122088194,
    "parent_id": null,
    "priority": 1,
    "project_id": 2001136386,
    "responsible_uid": null,
    "section_id": null,
    "sync_id": null,
    "user_id": 1658561
}