{
    "added_by_uid": 1658561,
    "assigned_by_uid": null,
    "checked": 0,
    "child_order": 5,
    "collapsed": 0,
    "content": "[DevOops, some common anti-patterns - By Gary Watts](https:\/\/hackernoon.com\/devoops-some-common-anti-patterns-1850ac2f5074)",
    "date_added": "2019-11-12T01:21:10Z",
    "date_completed": null,
    "day_order": -1,
    "description": "",
    "due": null,
    "has_more_notes": false,
    "id": 3503248465,
    "in_history": 0,
    "is_deleted": 0,
    "labels": [],
    "parent_id": null,
    "priority": 1,
    "project_id": 2218583198,
    "responsible_uid": null,
    "section_id": 1182369,
    "sync_id": null,
    "user_id": 1658561
}