{
    "added_by_uid": 1658561,
    "assigned_by_uid": null,
    "checked": 0,
    "child_order": 4,
    "collapsed": 0,
    "content": "plan de Elastic Cluster",
    "date_added": "2019-12-17T13:13:00Z",
    "date_completed": null,
    "day_order": 13,
    "description": "",
    "due": null,
    "has_more_notes": false,
    "id": 3569440543,
    "in_history": 0,
    "is_deleted": 0,
    "labels": [],
    "parent_id": null,
    "priority": 1,
    "project_id": 2218583198,
    "responsible_uid": null,
    "section_id": null,
    "sync_id": null,
    "user_id": 1658561
}