{
    "added_by_uid": 1658561,
    "assigned_by_uid": null,
    "checked": 0,
    "child_order": 67,
    "collapsed": 0,
    "content": "[The Troubles of Automating \u201call the Things\u201d | J. Paul Reed](https:\/\/youtu.be\/URDBE4q_IgM)",
    "date_added": "2020-01-02T14:27:09Z",
    "date_completed": null,
    "day_order": 36,
    "description": "",
    "due": null,
    "has_more_notes": false,
    "id": 3601055074,
    "in_history": 0,
    "is_deleted": 0,
    "labels": [],
    "legacy_project_id": 122088194,
    "parent_id": null,
    "priority": 1,
    "project_id": 2001136386,
    "responsible_uid": null,
    "section_id": null,
    "sync_id": null,
    "user_id": 1658561
}