{
    "added_by_uid": 1658561,
    "assigned_by_uid": null,
    "checked": 0,
    "child_order": 81,
    "collapsed": 0,
    "content": "[7 formas de potenciar tu NEAT para bajar de peso sin hacer ejercicios ni dieta](https:\/\/www.clarin.com\/viste\/7-formas-potenciar-neat-bajar-peso-hacer-ejercicios-dieta_0_dogPbs7u.html)",
    "date_added": "2020-01-10T00:29:00Z",
    "date_completed": null,
    "day_order": 43,
    "description": "",
    "due": null,
    "has_more_notes": false,
    "id": 3617109069,
    "in_history": 0,
    "is_deleted": 0,
    "labels": [],
    "legacy_project_id": 122088194,
    "parent_id": null,
    "priority": 1,
    "project_id": 2001136386,
    "responsible_uid": null,
    "section_id": null,
    "sync_id": null,
    "user_id": 1658561
}