{
    "added_by_uid": 1658561,
    "assigned_by_uid": null,
    "checked": 0,
    "child_order": 106,
    "collapsed": 0,
    "content": "[Manners Matter](https:\/\/www.wired.com\/1997\/11\/manners\/)",
    "date_added": "2020-02-01T01:41:30Z",
    "date_completed": null,
    "day_order": -1,
    "description": "",
    "due": null,
    "has_more_notes": false,
    "id": 3663803593,
    "in_history": 0,
    "is_deleted": 0,
    "labels": [],
    "parent_id": null,
    "priority": 1,
    "project_id": 2179356970,
    "responsible_uid": null,
    "section_id": null,
    "sync_id": null,
    "user_id": 1658561
}