{
    "added_by_uid": 1658561,
    "assigned_by_uid": null,
    "checked": 0,
    "child_order": 107,
    "collapsed": 0,
    "content": "[The Most Empathetic Companies, 2016](https:\/\/hbr.org\/2016\/12\/the-most-and-least-empathetic-companies-2016)",
    "date_added": "2020-02-03T17:05:03Z",
    "date_completed": null,
    "day_order": -1,
    "description": "",
    "due": null,
    "has_more_notes": false,
    "id": 3668577207,
    "in_history": 0,
    "is_deleted": 0,
    "labels": [],
    "parent_id": null,
    "priority": 1,
    "project_id": 2179356970,
    "responsible_uid": null,
    "section_id": null,
    "sync_id": null,
    "user_id": 1658561
}