{
    "added_by_uid": 1658561,
    "assigned_by_uid": null,
    "checked": 0,
    "child_order": 120,
    "collapsed": 0,
    "content": "[Ver \"Kanban: Toyota to Software Development in 2 Minutes\" en YouTube](https:\/\/youtu.be\/5izyN66PTxs)",
    "date_added": "2020-02-22T16:26:29Z",
    "date_completed": null,
    "day_order": -1,
    "description": "",
    "due": null,
    "has_more_notes": false,
    "id": 3708776149,
    "in_history": 0,
    "is_deleted": 0,
    "labels": [],
    "parent_id": null,
    "priority": 1,
    "project_id": 2179356970,
    "responsible_uid": null,
    "section_id": null,
    "sync_id": null,
    "user_id": 1658561
}