{
    "added_by_uid": 1658561,
    "assigned_by_uid": null,
    "checked": 0,
    "child_order": 123,
    "collapsed": 0,
    "content": "[Campos de nogales administrados \u2022 Chandler Orchards](https:\/\/www.chandlerorchards.com\/es\/ar-landing-j1\/)",
    "date_added": "2020-02-24T13:30:50Z",
    "date_completed": null,
    "day_order": -1,
    "description": "",
    "due": null,
    "has_more_notes": false,
    "id": 3711840483,
    "in_history": 0,
    "is_deleted": 0,
    "labels": [],
    "parent_id": null,
    "priority": 1,
    "project_id": 2179356970,
    "responsible_uid": null,
    "section_id": null,
    "sync_id": null,
    "user_id": 1658561
}