{
    "added_by_uid": 1658561,
    "assigned_by_uid": null,
    "checked": 0,
    "child_order": 1,
    "collapsed": 0,
    "content": ":walking: Caminata",
    "date_added": "2020-04-18T20:23:00Z",
    "date_completed": null,
    "day_order": -1,
    "description": "",
    "due": {
        "date": "2022-02-15T18:00:00",
        "is_recurring": true,
        "lang": "en",
        "string": "every day at 18:00",
        "timezone": null
    },
    "has_more_notes": false,
    "id": 3825423762,
    "in_history": 0,
    "is_deleted": 0,
    "labels": [],
    "legacy_project_id": 143829799,
    "parent_id": null,
    "priority": 1,
    "project_id": 2022877991,
    "responsible_uid": null,
    "section_id": null,
    "sync_id": null,
    "user_id": 1658561
}