{
    "added_by_uid": 1658561,
    "assigned_by_uid": null,
    "checked": 0,
    "child_order": 2,
    "collapsed": 0,
    "content": "Cel-Movistar 999 ?",
    "date_added": "2020-07-28T11:34:00Z",
    "date_completed": null,
    "day_order": -1,
    "description": "",
    "due": null,
    "has_more_notes": false,
    "id": 4065402813,
    "in_history": 0,
    "is_deleted": 0,
    "labels": [],
    "parent_id": null,
    "priority": 1,
    "project_id": 2179439695,
    "responsible_uid": null,
    "section_id": 19196654,
    "sync_id": null,
    "user_id": 1658561
}