{
    "added_by_uid": 1658561,
    "assigned_by_uid": null,
    "checked": 0,
    "child_order": 3,
    "collapsed": 0,
    "content": "Hacer el inventario de Sinclair",
    "date_added": "2021-01-22T07:38:00Z",
    "date_completed": null,
    "day_order": 22,
    "description": "",
    "due": null,
    "has_more_notes": false,
    "id": 4513097371,
    "in_history": 0,
    "is_deleted": 0,
    "labels": [],
    "parent_id": null,
    "priority": 1,
    "project_id": 2256118190,
    "responsible_uid": null,
    "section_id": null,
    "sync_id": null,
    "user_id": 1658561
}