{
    "added_by_uid": 1658561,
    "assigned_by_uid": null,
    "checked": 0,
    "child_order": 144,
    "collapsed": 0,
    "content": "Instalar temas el\u00e9ctricos en el ba\u00f1o",
    "date_added": "2021-07-22T12:39:49Z",
    "date_completed": null,
    "day_order": 10,
    "description": "",
    "due": null,
    "has_more_notes": false,
    "id": 5010455436,
    "in_history": 0,
    "is_deleted": 0,
    "labels": [],
    "legacy_project_id": 122088194,
    "parent_id": null,
    "priority": 3,
    "project_id": 2001136386,
    "responsible_uid": null,
    "section_id": null,
    "sync_id": null,
    "user_id": 1658561
}