{
    "added_by_uid": 1658561,
    "assigned_by_uid": null,
    "checked": 0,
    "child_order": 148,
    "collapsed": 0,
    "content": "consulta de Salgo TC SeSocio",
    "date_added": "2021-08-26T18:22:33Z",
    "date_completed": null,
    "day_order": 15,
    "description": "Tu solicitud de blanqueo fue generada con \u00e9xito. En cualquier cajero, dentro de las pr\u00f3ximas 48 horas, podr\u00e1s hacer efectivo tu nuevo PIN. Para confirmar la operaci\u00f3n es necesario que luego realices una consulta de saldo.",
    "due": null,
    "has_more_notes": false,
    "id": 5102213500,
    "in_history": 0,
    "is_deleted": 0,
    "labels": [],
    "legacy_project_id": 122088194,
    "parent_id": null,
    "priority": 3,
    "project_id": 2001136386,
    "responsible_uid": null,
    "section_id": null,
    "sync_id": null,
    "user_id": 1658561
}