{
    "added_by_uid": 1658561,
    "assigned_by_uid": null,
    "checked": 0,
    "child_order": 167,
    "collapsed": 0,
    "content": "Backup Mac",
    "date_added": "2021-12-20T11:52:39Z",
    "date_completed": null,
    "day_order": 40,
    "description": "",
    "due": null,
    "has_more_notes": false,
    "id": 5428702960,
    "in_history": 0,
    "is_deleted": 0,
    "labels": [],
    "legacy_project_id": 122088194,
    "parent_id": null,
    "priority": 1,
    "project_id": 2001136386,
    "responsible_uid": null,
    "section_id": null,
    "sync_id": null,
    "user_id": 1658561
}