{
    "added_by_uid": 1658561,
    "assigned_by_uid": null,
    "checked": 0,
    "child_order": 168,
    "collapsed": 0,
    "content": "Ir a donar sangre",
    "date_added": "2022-02-02T17:53:56Z",
    "date_completed": null,
    "day_order": -1,
    "description": "",
    "due": {
        "date": "2022-04-04",
        "is_recurring": false,
        "lang": "en",
        "string": "4 Apr",
        "timezone": null
    },
    "has_more_notes": false,
    "id": 5559334703,
    "in_history": 0,
    "is_deleted": 0,
    "labels": [],
    "legacy_project_id": 122088194,
    "parent_id": null,
    "priority": 3,
    "project_id": 2001136386,
    "responsible_uid": null,
    "section_id": null,
    "sync_id": null,
    "user_id": 1658561
}