{
    "added_by_uid": 1658561,
    "assigned_by_uid": null,
    "checked": 0,
    "child_order": 91,
    "collapsed": 0,
    "content": "configurar kubectl a mas de un cluster",
    "date_added": "2022-02-12T16:26:47Z",
    "date_completed": null,
    "day_order": -1,
    "description": "",
    "due": {
        "date": "2022-02-15",
        "is_recurring": false,
        "lang": "en",
        "string": "15 Feb",
        "timezone": null
    },
    "has_more_notes": false,
    "id": 5589888367,
    "in_history": 0,
    "is_deleted": 0,
    "labels": [],
    "legacy_project_id": 121918548,
    "parent_id": null,
    "priority": 4,
    "project_id": 2000966740,
    "responsible_uid": null,
    "section_id": null,
    "sync_id": null,
    "user_id": 1658561
}